{
    "Resources": {
        "sandboxStks3PutObjdummybucketCBA3368C": {
            "Type": "AWS::S3::Bucket",
            "Properties": {
                "BucketEncryption": {"ServerSideEncryptionConfiguration": [{"ServerSideEncryptionByDefault": {"SSEAlgorithm": "AES256"}}]},
                "BucketName": {"Fn::Join": ["", [{"Ref": "AWS::AccountId"}, "-sandbox-dummy-bucket"]]},
                "LifecycleConfiguration": {"Rules": [{"ExpirationInDays": 7, "Status": "Enabled"}]},
                "PublicAccessBlockConfiguration": {"BlockPublicAcls": true, "BlockPublicPolicy": true, "IgnorePublicAcls": true, "RestrictPublicBuckets": true},
                "Tags": [{"Key": "aws-cdk:auto-delete-objects", "Value": "true"}]
            },
            "UpdateReplacePolicy": "Delete",
            "DeletionPolicy": "Delete",
            "Metadata": {"aws:cdk:path": "CRTestPy/sandbox-Stk-s3PutObj/dummy-bucket/Resource"}
        },
        "sandboxStks3PutObjdummybucketPolicy3C7CA552": {
            "Type": "AWS::S3::BucketPolicy",
            "Properties": {
                "Bucket": {"Ref": "sandboxStks3PutObjdummybucketCBA3368C"},
                "PolicyDocument": {
                    "Statement": [
                        {
                            "Action": "s3:*",
                            "Condition": {"Bool": {"aws:SecureTransport": "false"}},
                            "Effect": "Deny",
                            "Principal": {"AWS": "*"},
                            "Resource": [{"Fn::GetAtt": ["sandboxStks3PutObjdummybucketCBA3368C", "Arn"]}, {"Fn::Join": ["", [{"Fn::GetAtt": ["sandboxStks3PutObjdummybucketCBA3368C", "Arn"]}, "/*"]]}]
                        },
                        {
                            "Action": ["s3:DeleteObject*", "s3:GetBucket*", "s3:List*"],
                            "Effect": "Allow",
                            "Principal": {"AWS": {"Fn::GetAtt": ["CustomS3AutoDeleteObjectsCustomResourceProviderRole3B1BD092", "Arn"]}},
                            "Resource": [{"Fn::GetAtt": ["sandboxStks3PutObjdummybucketCBA3368C", "Arn"]}, {"Fn::Join": ["", [{"Fn::GetAtt": ["sandboxStks3PutObjdummybucketCBA3368C", "Arn"]}, "/*"]]}]
                        }
                    ],
                    "Version": "2012-10-17"
                }
            },
            "Metadata": {"aws:cdk:path": "CRTestPy/sandbox-Stk-s3PutObj/dummy-bucket/Policy/Resource"}
        },
        "sandboxStks3PutObjdummybucketAutoDeleteObjectsCustomResourceD3C99302": {
            "Type": "Custom::S3AutoDeleteObjects",
            "Properties": {"ServiceToken": {"Fn::GetAtt": ["CustomS3AutoDeleteObjectsCustomResourceProviderHandler9D90184F", "Arn"]}, "BucketName": {"Ref": "sandboxStks3PutObjdummybucketCBA3368C"}},
            "DependsOn": ["sandboxStks3PutObjdummybucketPolicy3C7CA552"],
            "UpdateReplacePolicy": "Delete",
            "DeletionPolicy": "Delete",
            "Metadata": {"aws:cdk:path": "CRTestPy/sandbox-Stk-s3PutObj/dummy-bucket/AutoDeleteObjectsCustomResource/Default"}
        },
        "sandboxStks3PutObjawsconfigFC757E60": {
            "Type": "Custom::AWS",
            "Properties": {
                "ServiceToken": {"Fn::GetAtt": ["AWS679f53fac002430cb0da5b7982bd22872D164C4C", "Arn"]},
                "Create": {
                    "Fn::Join": [
                        "",
                        [
                            "{\"action\":\"putObject\",\"service\":\"S3\",\"parameters\":{\"Bucket\":\"",
                            {"Ref": "sandboxStks3PutObjdummybucketCBA3368C"},
                            "\",\"Key\":\"sandbox-data/aws_config.json\",\"Body\":\"{\n  \\\"Auth\\\": {\n    \\\"region\\\": \\\"us-east-1\\\",\n    \\\"identityPoolRegion\\\": \\\"us-east-1\\\",\n    \\\"userPoolId\\\": \\\"user_pool_id\\\",\n    \\\"userPoolWebClientId\\\": \\\"ui_client.user_pool_client_id\\\",\n    \\\"mandatorySignIn\\\": false,\n    \\\"identityPoolId\\\": \\\"identity_pool.identity_pool_id\\\",\n    \\\"domain\\\": \\\"hosted_ui_domain\\\",\n    \\\"oauth\\\": {\n      \\\"name\\\": \\\"Hosted UI\\\",\n      \\\"domain\\\": \\\"hosted_ui_domain\\\",\n      \\\"scope\\\": [\n        \\\"email\\\",\n        \\\"openid\\\",\n        \\\"profile\\\",\n        \\\"aws.cognito.signin.user.admin\\\"\n      ],\n      \\\"responseType\\\": \\\"code\\\"\n    }\n  },\n  \\\"group\\\": \\\"user_pool_group_name\\\",\n  \\\"qs_url_lambda_name\\\": \\\"qs_url_lambda.function_name\\\",\n  \\\"Storage\\\": {\n    \\\"AWSS3\\\": {\n      \\\"bucket\\\": \\\"my-bucket_name\\\",\n      \\\"region\\\": \\\"us-east-1\\\",\n      \\\"isObjectLockEnabled\\\": true\n    }\n  },\n  \\\"ENV\\\": \\\"sandbox\\\",\n  \\\"dynamo_table\\\": \\\"user.table_name\\\",\n  \\\"my_lambda_name\\\": \\\"Undefined when initially CDK-deployed!\\\"\n}\"},\"physicalResourceId\":{\"id\":\"sandbox-data/aws_config.json.2024-01-18 15:31:10.319107\"}}"
                        ]
                    ]
                },
                "Update": {
                    "Fn::Join": [
                        "",
                        [
                            "{\"action\":\"putObject\",\"service\":\"S3\",\"parameters\":{\"Bucket\":\"",
                            {"Ref": "sandboxStks3PutObjdummybucketCBA3368C"},
                            "\",\"Key\":\"sandbox-data/aws_config.json\",\"Body\":\"{\n  \\\"Auth\\\": {\n    \\\"region\\\": \\\"us-east-1\\\",\n    \\\"identityPoolRegion\\\": \\\"us-east-1\\\",\n    \\\"userPoolId\\\": \\\"user_pool_id\\\",\n    \\\"userPoolWebClientId\\\": \\\"ui_client.user_pool_client_id\\\",\n    \\\"mandatorySignIn\\\": false,\n    \\\"identityPoolId\\\": \\\"identity_pool.identity_pool_id\\\",\n    \\\"domain\\\": \\\"hosted_ui_domain\\\",\n    \\\"oauth\\\": {\n      \\\"name\\\": \\\"Hosted UI\\\",\n      \\\"domain\\\": \\\"hosted_ui_domain\\\",\n      \\\"scope\\\": [\n        \\\"email\\\",\n        \\\"openid\\\",\n        \\\"profile\\\",\n        \\\"aws.cognito.signin.user.admin\\\"\n      ],\n      \\\"responseType\\\": \\\"code\\\"\n    }\n  },\n  \\\"group\\\": \\\"user_pool_group_name\\\",\n  \\\"qs_url_lambda_name\\\": \\\"qs_url_lambda.function_name\\\",\n  \\\"Storage\\\": {\n    \\\"AWSS3\\\": {\n      \\\"bucket\\\": \\\"my-bucket_name\\\",\n      \\\"region\\\": \\\"us-east-1\\\",\n      \\\"isObjectLockEnabled\\\": true\n    }\n  },\n  \\\"ENV\\\": \\\"sandbox\\\",\n  \\\"dynamo_table\\\": \\\"user.table_name\\\",\n  \\\"my_lambda_name\\\": \\\"Undefined when initially CDK-deployed!\\\"\n}\"},\"physicalResourceId\":{\"id\":\"sandbox-data/aws_config.json.2024-01-18 15:31:10.319107\"}}"
                        ]
                    ]
                },
                "Delete": {
                    "Fn::Join": [
                        "",
                        [
                            "{\"action\":\"deleteObject\",\"service\":\"S3\",\"parameters\":{\"Bucket\":\"",
                            {"Ref": "sandboxStks3PutObjdummybucketCBA3368C"},
                            "\",\"Key\":\"sandbox-data/aws_config.json\"},\"physicalResourceId\":{\"id\":\"sandbox-data/aws_config.json.2024-01-18 15:31:10\"}}"
                        ]
                    ]
                },
                "InstallLatestAwsSdk": false
            },
            "DependsOn": ["sandboxStks3PutObjawsconfigCustomResourcePolicy9EC8D8A5"],
            "UpdateReplacePolicy": "Delete",
            "DeletionPolicy": "Delete",
            "Metadata": {"aws:cdk:path": "CRTestPy/sandbox-Stk-s3PutObj/aws-config/Resource/Default"}
        },
        "sandboxStks3PutObjawsconfigCustomResourcePolicy9EC8D8A5": {
            "Type": "AWS::IAM::Policy",
            "Properties": {
                "PolicyDocument": {"Statement": [{"Action": ["s3:DeleteObject", "s3:PutObject"], "Effect": "Allow", "Resource": "*"}], "Version": "2012-10-17"},
                "PolicyName": "sandboxStks3PutObjawsconfigCustomResourcePolicy9EC8D8A5",
                "Roles": [{"Ref": "AWS679f53fac002430cb0da5b7982bd2287ServiceRoleC1EA0FF2"}]
            },
            "Metadata": {"aws:cdk:path": "CRTestPy/sandbox-Stk-s3PutObj/aws-config/CustomResourcePolicy/Resource"}
        },
        "sandboxStks3PutObjdummytable23E5182E": {
            "Type": "AWS::DynamoDB::Table",
            "Properties": {
                "AttributeDefinitions": [{"AttributeName": "id", "AttributeType": "S"}],
                "DeletionProtectionEnabled": false,
                "KeySchema": [{"AttributeName": "id", "KeyType": "HASH"}],
                "PointInTimeRecoverySpecification": {"PointInTimeRecoveryEnabled": false},
                "ProvisionedThroughput": {"ReadCapacityUnits": 5, "WriteCapacityUnits": 5}
            },
            "UpdateReplacePolicy": "Delete",
            "DeletionPolicy": "Delete",
            "Metadata": {"aws:cdk:path": "CRTestPy/sandbox-Stk-s3PutObj/dummy-table/Resource"}
        },
        "CustomS3AutoDeleteObjectsCustomResourceProviderRole3B1BD092": {
            "Type": "AWS::IAM::Role",
            "Properties": {
                "AssumeRolePolicyDocument": {"Version": "2012-10-17", "Statement": [{"Action": "sts:AssumeRole", "Effect": "Allow", "Principal": {"Service": "lambda.amazonaws.com"}}]},
                "ManagedPolicyArns": [{"Fn::Sub": "arn:${AWS::Partition}:iam::aws:policy/service-role/AWSLambdaBasicExecutionRole"}]
            },
            "Metadata": {"aws:cdk:path": "CRTestPy/Custom::S3AutoDeleteObjectsCustomResourceProvider/Role"}
        },
        "CustomS3AutoDeleteObjectsCustomResourceProviderHandler9D90184F": {
            "Type": "AWS::Lambda::Function",
            "Properties": {
                "Code": {"S3Bucket": {"Fn::Sub": "cdk-hnb659fds-assets-${AWS::AccountId}-${AWS::Region}"}, "S3Key": "a657308e723bb9460b800cb3b47dadb74e28243edfe246bf7755c45ec312eb97.zip"},
                "Timeout": 900,
                "MemorySize": 128,
                "Handler": "index.handler",
                "Role": {"Fn::GetAtt": ["CustomS3AutoDeleteObjectsCustomResourceProviderRole3B1BD092", "Arn"]},
                "Runtime": "nodejs18.x",
                "Description": {"Fn::Join": ["", ["Lambda function for auto-deleting objects in ", {"Ref": "sandboxStks3PutObjdummybucketCBA3368C"}, " S3 bucket."]]}
            },
            "DependsOn": ["CustomS3AutoDeleteObjectsCustomResourceProviderRole3B1BD092"],
            "Metadata": {
                "aws:cdk:path": "CRTestPy/Custom::S3AutoDeleteObjectsCustomResourceProvider/Handler",
                "aws:asset:path": "asset.a657308e723bb9460b800cb3b47dadb74e28243edfe246bf7755c45ec312eb97",
                "aws:asset:property": "Code"
            }
        },
        "AWS679f53fac002430cb0da5b7982bd2287ServiceRoleC1EA0FF2": {
            "Type": "AWS::IAM::Role",
            "Properties": {
                "AssumeRolePolicyDocument": {"Statement": [{"Action": "sts:AssumeRole", "Effect": "Allow", "Principal": {"Service": "lambda.amazonaws.com"}}], "Version": "2012-10-17"},
                "ManagedPolicyArns": [{"Fn::Join": ["", ["arn:", {"Ref": "AWS::Partition"}, ":iam::aws:policy/service-role/AWSLambdaBasicExecutionRole"]]}]
            },
            "Metadata": {"aws:cdk:path": "CRTestPy/AWS679f53fac002430cb0da5b7982bd2287/ServiceRole/Resource"}
        },
        "AWS679f53fac002430cb0da5b7982bd22872D164C4C": {
            "Type": "AWS::Lambda::Function",
            "Properties": {
                "Code": {"S3Bucket": {"Fn::Sub": "cdk-hnb659fds-assets-${AWS::AccountId}-${AWS::Region}"}, "S3Key": "214ee26e035e4ca385080fbe9cac79c5e5e73558c51bd344b91f679e28ffff57.zip"},
                "Handler": "index.handler",
                "Role": {"Fn::GetAtt": ["AWS679f53fac002430cb0da5b7982bd2287ServiceRoleC1EA0FF2", "Arn"]},
                "Runtime": "nodejs18.x",
                "Timeout": 120
            },
            "DependsOn": ["AWS679f53fac002430cb0da5b7982bd2287ServiceRoleC1EA0FF2"],
            "Metadata": {
                "aws:cdk:path": "CRTestPy/AWS679f53fac002430cb0da5b7982bd2287/Resource",
                "aws:asset:path": "asset.214ee26e035e4ca385080fbe9cac79c5e5e73558c51bd344b91f679e28ffff57",
                "aws:asset:is-bundled": false,
                "aws:asset:property": "Code"
            }
        },
        "AWS679f53fac002430cb0da5b7982bd2287LogRetentionCE72797A": {
            "Type": "Custom::LogRetention",
            "Properties": {
                "ServiceToken": {"Fn::GetAtt": ["LogRetentionaae0aa3c5b4d4f87b02d85b201efdd8aFD4BFC8A", "Arn"]},
                "LogGroupName": {"Fn::Join": ["", ["/aws/lambda/", {"Ref": "AWS679f53fac002430cb0da5b7982bd22872D164C4C"}]]},
                "RetentionInDays": 7
            },
            "Metadata": {"aws:cdk:path": "CRTestPy/AWS679f53fac002430cb0da5b7982bd2287/LogRetention/Resource"}
        },
        "LogRetentionaae0aa3c5b4d4f87b02d85b201efdd8aServiceRole9741ECFB": {
            "Type": "AWS::IAM::Role",
            "Properties": {
                "AssumeRolePolicyDocument": {"Statement": [{"Action": "sts:AssumeRole", "Effect": "Allow", "Principal": {"Service": "lambda.amazonaws.com"}}], "Version": "2012-10-17"},
                "ManagedPolicyArns": [{"Fn::Join": ["", ["arn:", {"Ref": "AWS::Partition"}, ":iam::aws:policy/service-role/AWSLambdaBasicExecutionRole"]]}]
            },
            "Metadata": {"aws:cdk:path": "CRTestPy/LogRetentionaae0aa3c5b4d4f87b02d85b201efdd8a/ServiceRole/Resource"}
        },
        "LogRetentionaae0aa3c5b4d4f87b02d85b201efdd8aServiceRoleDefaultPolicyADDA7DEB": {
            "Type": "AWS::IAM::Policy",
            "Properties": {
                "PolicyDocument": {"Statement": [{"Action": ["logs:DeleteRetentionPolicy", "logs:PutRetentionPolicy"], "Effect": "Allow", "Resource": "*"}], "Version": "2012-10-17"},
                "PolicyName": "LogRetentionaae0aa3c5b4d4f87b02d85b201efdd8aServiceRoleDefaultPolicyADDA7DEB",
                "Roles": [{"Ref": "LogRetentionaae0aa3c5b4d4f87b02d85b201efdd8aServiceRole9741ECFB"}]
            },
            "Metadata": {"aws:cdk:path": "CRTestPy/LogRetentionaae0aa3c5b4d4f87b02d85b201efdd8a/ServiceRole/DefaultPolicy/Resource"}
        },
        "LogRetentionaae0aa3c5b4d4f87b02d85b201efdd8aFD4BFC8A": {
            "Type": "AWS::Lambda::Function",
            "Properties": {
                "Handler": "index.handler",
                "Runtime": "nodejs18.x",
                "Code": {"S3Bucket": {"Fn::Sub": "cdk-hnb659fds-assets-${AWS::AccountId}-${AWS::Region}"}, "S3Key": "5cc92ed0cea39e2b8de2dbc527dfb5980a3af9564bd1084d840b9787c7d0467e.zip"},
                "Role": {"Fn::GetAtt": ["LogRetentionaae0aa3c5b4d4f87b02d85b201efdd8aServiceRole9741ECFB", "Arn"]}
            },
            "DependsOn": ["LogRetentionaae0aa3c5b4d4f87b02d85b201efdd8aServiceRoleDefaultPolicyADDA7DEB", "LogRetentionaae0aa3c5b4d4f87b02d85b201efdd8aServiceRole9741ECFB"],
            "Metadata": {
                "aws:cdk:path": "CRTestPy/LogRetentionaae0aa3c5b4d4f87b02d85b201efdd8a/Resource",
                "aws:asset:path": "asset.5cc92ed0cea39e2b8de2dbc527dfb5980a3af9564bd1084d840b9787c7d0467e",
                "aws:asset:is-bundled": false,
                "aws:asset:property": "Code"
            }
        },
        "sandboxStkHelloWorldLambdasandboxrolemylambdaDBFCB73E": {
            "Type": "AWS::IAM::Role",
            "Properties": {
                "AssumeRolePolicyDocument": {"Statement": [{"Action": "sts:AssumeRole", "Effect": "Allow", "Principal": {"Service": "lambda.amazonaws.com"}}], "Version": "2012-10-17"},
                "ManagedPolicyArns": [{"Fn::Join": ["", ["arn:", {"Ref": "AWS::Partition"}, ":iam::aws:policy/service-role/AWSLambdaBasicExecutionRole"]]}]
            },
            "Metadata": {"aws:cdk:path": "CRTestPy/sandbox-Stk-HelloWorldLambda/sandbox-role-mylambda/Resource"}
        },
        "sandboxStkHelloWorldLambdasandboxrolemylambdaDefaultPolicyF732375F": {
            "Type": "AWS::IAM::Policy",
            "Properties": {
                "PolicyDocument": {
                    "Statement": [
                        {
                            "Action": ["s3:GetBucket*", "s3:GetObject*", "s3:List*"],
                            "Effect": "Allow",
                            "Resource": [{"Fn::GetAtt": ["sandboxStks3PutObjdummybucketCBA3368C", "Arn"]}, {"Fn::Join": ["", [{"Fn::GetAtt": ["sandboxStks3PutObjdummybucketCBA3368C", "Arn"]}, "/*"]]}]
                        }
                    ],
                    "Version": "2012-10-17"
                },
                "PolicyName": "sandboxStkHelloWorldLambdasandboxrolemylambdaDefaultPolicyF732375F",
                "Roles": [{"Ref": "sandboxStkHelloWorldLambdasandboxrolemylambdaDBFCB73E"}]
            },
            "Metadata": {"aws:cdk:path": "CRTestPy/sandbox-Stk-HelloWorldLambda/sandbox-role-mylambda/DefaultPolicy/Resource"}
        },
        "sandboxStkHelloWorldLambdasandboxmylambda53ACD25E": {
            "Type": "AWS::Lambda::Function",
            "Properties": {
                "Architectures": ["arm64"],
                "Code": {"S3Bucket": {"Fn::Sub": "cdk-hnb659fds-assets-${AWS::AccountId}-${AWS::Region}"}, "S3Key": "70586877a77e8d8bf975118a374b40b4f1f3b1b759ef0d98c1dc35125c3c2cce.zip"},
                "Description": "sandbox: a very-basic PYTHON hello-world lambda",
                "Handler": "hello_world.handler",
                "MemorySize": 128,
                "ReservedConcurrentExecutions": 2,
                "Role": {"Fn::GetAtt": ["sandboxStkHelloWorldLambdasandboxrolemylambdaDBFCB73E", "Arn"]},
                "Runtime": "python3.11",
                "Timeout": 300
            },
            "DependsOn": ["sandboxStkHelloWorldLambdasandboxrolemylambdaDefaultPolicyF732375F", "sandboxStkHelloWorldLambdasandboxrolemylambdaDBFCB73E"],
            "Metadata": {
                "aws:cdk:path": "CRTestPy/sandbox-Stk-HelloWorldLambda/sandbox-mylambda/Resource",
                "aws:asset:path": "asset.70586877a77e8d8bf975118a374b40b4f1f3b1b759ef0d98c1dc35125c3c2cce",
                "aws:asset:is-bundled": false,
                "aws:asset:property": "Code"
            }
        },
        "sandboxStkHelloWorldLambdasandboxmylambdaLogRetentionEAF99B95": {
            "Type": "Custom::LogRetention",
            "Properties": {
                "ServiceToken": {"Fn::GetAtt": ["LogRetentionaae0aa3c5b4d4f87b02d85b201efdd8aFD4BFC8A", "Arn"]},
                "LogGroupName": {"Fn::Join": ["", ["/aws/lambda/", {"Ref": "sandboxStkHelloWorldLambdasandboxmylambda53ACD25E"}]]},
                "RetentionInDays": 7
            },
            "Metadata": {"aws:cdk:path": "CRTestPy/sandbox-Stk-HelloWorldLambda/sandbox-mylambda/LogRetention/Resource"}
        },
        "sandboxStkHelloWorldLambdasandboxmylambdaEventInvokeConfigAC57878E": {
            "Type": "AWS::Lambda::EventInvokeConfig",
            "Properties": {"FunctionName": {"Ref": "sandboxStkHelloWorldLambdasandboxmylambda53ACD25E"}, "MaximumRetryAttempts": 0, "Qualifier": "$LATEST"},
            "Metadata": {"aws:cdk:path": "CRTestPy/sandbox-Stk-HelloWorldLambda/sandbox-mylambda/EventInvokeConfig/Resource"}
        },
        "sandboxstackdelinkerawscrrole830D0C51": {
            "Type": "AWS::IAM::Role",
            "Properties": {
                "RoleName": "sandbox-cr-stack-delinker",
                "Description": "sandbox-tier IAM-Role for CUSTOM-RESOURCE sandbox-cr-stack-delinker-role",
                "ManagedPolicyArns": ["arn:aws:iam::aws:policy/service-role/AWSLambdaBasicExecutionRole"],
                "AssumeRolePolicyDocument": {"Statement": [{"Action": "sts:AssumeRole", "Effect": "Allow", "Principal": {"Service": "lambda.amazonaws.com"}}], "Version": "2012-10-17"},
                "Policies": [
                    {
                        "PolicyName": "sandbox-cr-stack-delinker",
                        "PolicyDocument": {
                            "Version": "2012-10-17",
                            "Statement": [
                                {
                                    "Sid": "CFTCusResServiceRoleSecretsMgr",
                                    "Action": "secretsmanager:GetSecretValue",
                                    "Effect": "Allow",
                                    "Resource": {"Fn::Sub": "arn:${AWS::Partition}:secretsmanager:${AWS::Region}:${AWS::AccountId}:secret:sandbox/cr-lambda/*"}
                                }
                            ]
                        }
                    }
                ]
            },
            "Metadata": {"aws:cdk:path": "CRTestPy/sandbox-stack-delinker/aws_cr-role/Resource"}
        },
        "sandboxstackdelinkerawscrroleDefaultPolicy73214864": {
            "Type": "AWS::IAM::Policy",
            "Properties": {
                "PolicyName": "sandboxstackdelinkerawscrroleDefaultPolicy73214864",
                "Roles": [{"Ref": "sandboxstackdelinkerawscrrole830D0C51"}],
                "PolicyDocument": {
                    "Version": "2012-10-17",
                    "Statement": [
                        {
                            "Action": [
                                "s3:Abort*",
                                "s3:DeleteObject*",
                                "s3:GetBucket*",
                                "s3:GetObject*",
                                "s3:List*",
                                "s3:PutObject",
                                "s3:PutObjectLegalHold",
                                "s3:PutObjectRetention",
                                "s3:PutObjectTagging",
                                "s3:PutObjectVersionTagging"
                            ],
                            "Effect": "Allow",
                            "Resource": [{"Fn::GetAtt": ["sandboxStks3PutObjdummybucketCBA3368C", "Arn"]}, {"Fn::Join": ["", [{"Fn::GetAtt": ["sandboxStks3PutObjdummybucketCBA3368C", "Arn"]}, "/*"]]}]
                        }
                    ]
                }
            },
            "Metadata": {"aws:cdk:path": "CRTestPy/sandbox-stack-delinker/aws_cr-role/DefaultPolicy/Resource"}
        },
        "sandboxstackdelinkersandboxcrstackdelinkerlambdahandlerD3F6BE1D": {
            "Type": "AWS::Lambda::Function",
            "Properties": {
                "Description": "CDK-CustomResource - sandbox-cr-stack-delinker",
                "Architectures": ["arm64"],
                "Code": {"S3Bucket": {"Fn::Sub": "cdk-hnb659fds-assets-${AWS::AccountId}-${AWS::Region}"}, "S3Key": "70586877a77e8d8bf975118a374b40b4f1f3b1b759ef0d98c1dc35125c3c2cce.zip"},
                "FunctionName": "sandbox-cr-stack-delinker",
                "Handler": "custom_resource_handler.on_event",
                "MemorySize": 128,
                "ReservedConcurrentExecutions": 2,
                "Role": {"Fn::GetAtt": ["sandboxstackdelinkerawscrrole830D0C51", "Arn"]},
                "Runtime": "python3.11",
                "Timeout": 300
            },
            "DependsOn": ["sandboxstackdelinkerawscrroleDefaultPolicy73214864", "sandboxstackdelinkerawscrrole830D0C51"],
            "Metadata": {
                "aws:cdk:path": "CRTestPy/sandbox-stack-delinker/sandbox-cr-stack-delinker-lambda-handler/Resource",
                "aws:asset:path": "asset.70586877a77e8d8bf975118a374b40b4f1f3b1b759ef0d98c1dc35125c3c2cce",
                "aws:asset:is-bundled": false,
                "aws:asset:property": "Code"
            }
        },
        "sandboxstackdelinkersandboxcrstackdelinkerlambdahandlerLogRetention2655426A": {
            "Type": "Custom::LogRetention",
            "Properties": {
                "ServiceToken": {"Fn::GetAtt": ["LogRetentionaae0aa3c5b4d4f87b02d85b201efdd8aFD4BFC8A", "Arn"]},
                "LogGroupName": {"Fn::Join": ["", ["/aws/lambda/", {"Ref": "sandboxstackdelinkersandboxcrstackdelinkerlambdahandlerD3F6BE1D"}]]},
                "RetentionInDays": 7
            },
            "Metadata": {"aws:cdk:path": "CRTestPy/sandbox-stack-delinker/sandbox-cr-stack-delinker-lambda-handler/LogRetention/Resource"}
        },
        "sandboxstackdelinkersandboxcrstackdelinkerlambdahandlerEventInvokeConfig62597308": {
            "Type": "AWS::Lambda::EventInvokeConfig",
            "Properties": {"FunctionName": {"Ref": "sandboxstackdelinkersandboxcrstackdelinkerlambdahandlerD3F6BE1D"}, "MaximumRetryAttempts": 0, "Qualifier": "$LATEST"},
            "Metadata": {"aws:cdk:path": "CRTestPy/sandbox-stack-delinker/sandbox-cr-stack-delinker-lambda-handler/EventInvokeConfig/Resource"}
        },
        "sandboxstackdelinkersandboxstackdelinkercrproviderframeworkonEventServiceRole6325D98E": {
            "Type": "AWS::IAM::Role",
            "Properties": {
                "AssumeRolePolicyDocument": {"Statement": [{"Action": "sts:AssumeRole", "Effect": "Allow", "Principal": {"Service": "lambda.amazonaws.com"}}], "Version": "2012-10-17"},
                "ManagedPolicyArns": [{"Fn::Join": ["", ["arn:", {"Ref": "AWS::Partition"}, ":iam::aws:policy/service-role/AWSLambdaBasicExecutionRole"]]}]
            },
            "Metadata": {"aws:cdk:path": "CRTestPy/sandbox-stack-delinker/sandbox-stack-delinker-cr-provider/framework-onEvent/ServiceRole/Resource"}
        },
        "sandboxstackdelinkersandboxstackdelinkercrproviderframeworkonEventServiceRoleDefaultPolicy4DDC5E39": {
            "Type": "AWS::IAM::Policy",
            "Properties": {
                "PolicyDocument": {
                    "Statement": [
                        {
                            "Action": "lambda:InvokeFunction",
                            "Effect": "Allow",
                            "Resource": [
                                {"Fn::GetAtt": ["sandboxstackdelinkersandboxcrstackdelinkerlambdahandlerD3F6BE1D", "Arn"]},
                                {"Fn::Join": ["", [{"Fn::GetAtt": ["sandboxstackdelinkersandboxcrstackdelinkerlambdahandlerD3F6BE1D", "Arn"]}, ":*"]]}
                            ]
                        }
                    ],
                    "Version": "2012-10-17"
                },
                "PolicyName": "sandboxstackdelinkersandboxstackdelinkercrproviderframeworkonEventServiceRoleDefaultPolicy4DDC5E39",
                "Roles": [{"Ref": "sandboxstackdelinkersandboxstackdelinkercrproviderframeworkonEventServiceRole6325D98E"}]
            },
            "Metadata": {"aws:cdk:path": "CRTestPy/sandbox-stack-delinker/sandbox-stack-delinker-cr-provider/framework-onEvent/ServiceRole/DefaultPolicy/Resource"}
        },
        "sandboxstackdelinkersandboxstackdelinkercrproviderframeworkonEventF428B58A": {
            "Type": "AWS::Lambda::Function",
            "Properties": {
                "Code": {"S3Bucket": {"Fn::Sub": "cdk-hnb659fds-assets-${AWS::AccountId}-${AWS::Region}"}, "S3Key": "f2d30cfc360482320a52a4fcde8a70f3569df79ab30be24650fda58eb60052cf.zip"},
                "Description": "AWS CDK resource provider framework - onEvent (CRTestPy/sandbox-stack-delinker/sandbox-stack-delinker-cr-provider)",
                "Environment": {"Variables": {"USER_ON_EVENT_FUNCTION_ARN": {"Fn::GetAtt": ["sandboxstackdelinkersandboxcrstackdelinkerlambdahandlerD3F6BE1D", "Arn"]}}},
                "Handler": "framework.onEvent",
                "Role": {"Fn::GetAtt": ["sandboxstackdelinkersandboxstackdelinkercrproviderframeworkonEventServiceRole6325D98E", "Arn"]},
                "Runtime": "nodejs18.x",
                "Timeout": 900
            },
            "DependsOn": [
                "sandboxstackdelinkersandboxstackdelinkercrproviderframeworkonEventServiceRoleDefaultPolicy4DDC5E39",
                "sandboxstackdelinkersandboxstackdelinkercrproviderframeworkonEventServiceRole6325D98E"
            ],
            "Metadata": {
                "aws:cdk:path": "CRTestPy/sandbox-stack-delinker/sandbox-stack-delinker-cr-provider/framework-onEvent/Resource",
                "aws:asset:path": "asset.f2d30cfc360482320a52a4fcde8a70f3569df79ab30be24650fda58eb60052cf",
                "aws:asset:is-bundled": false,
                "aws:asset:property": "Code"
            }
        },
        "sandboxstackdelinkersandboxstackdelinkercrproviderframeworkonEventLogRetention5AF26A36": {
            "Type": "Custom::LogRetention",
            "Properties": {
                "ServiceToken": {"Fn::GetAtt": ["LogRetentionaae0aa3c5b4d4f87b02d85b201efdd8aFD4BFC8A", "Arn"]},
                "LogGroupName": {"Fn::Join": ["", ["/aws/lambda/", {"Ref": "sandboxstackdelinkersandboxstackdelinkercrproviderframeworkonEventF428B58A"}]]},
                "RetentionInDays": 7
            },
            "Metadata": {"aws:cdk:path": "CRTestPy/sandbox-stack-delinker/sandbox-stack-delinker-cr-provider/framework-onEvent/LogRetention/Resource"}
        },
        "sandboxstackdelinkersandboxstackdelinkercrresource97A4D813": {
            "Type": "Custom::MyStackDeLinker",
            "Properties": {
                "ServiceToken": {"Fn::GetAtt": ["sandboxstackdelinkersandboxstackdelinkercrproviderframeworkonEventF428B58A", "Arn"]},
                "ENV": "sandbox",
                "AWSRegion": {"Ref": "AWS::Region"},
                "AWSAccount": {"Ref": "AWS::AccountId"},
                "Bucket": {"Ref": "sandboxStks3PutObjdummybucketCBA3368C"},
                "Key": "sandbox-data/aws_config.json",
                "my_lambda_name": {"Ref": "sandboxStkHelloWorldLambdasandboxmylambda53ACD25E"},
                "my_lambda_arn": {"Fn::GetAtt": ["sandboxStkHelloWorldLambdasandboxmylambda53ACD25E", "Arn"]},
                "physical_resource_id": "sandbox.sandbox-data/aws_config.json.2024-01-18 15:31:10"
            },
            "UpdateReplacePolicy": "Delete",
            "DeletionPolicy": "Delete",
            "Metadata": {"aws:cdk:path": "CRTestPy/sandbox-stack-delinker/sandbox-stack-delinker-cr-resource/Default"}
        },
        "CDKMetadata": {
            "Type": "AWS::CDK::Metadata",
            "Properties": {
                "Analytics": "v2:deflate64:H4sIAAAAAAAA/2VRy26DMBD8Fu7GIeVQ9dYkSqVKPSDaOzK2Q1yMN2INEUL+9xoMQW1PM7Oz3pef6EtKxyRid4y5qGOtSjp+WsZr4kPFiN49dryWlpwuZmEBMtCKD1t40UEcGUpHNGtKwXxBZSotLZi3znCrwJAH8c8f/NxLY99ND7U8gbmoanL/BR1RrKHj1n5hOWg5yQkdEYNhDQi/zRcrgzETRzAtGKK0SA8TEA0V0g+ocml9Jz+HI6cOLTS5ROhaHoqunM9W0S4a6Xi445/8rIVeCdk6spX4lbEmkHkCf+7KH2hq4zcUKsyQxEzfrowm0evyObsJw0nj22CvYJaUbBbrGR0JepfS/Z4+R9+oVNx2frVG0jzgDytWgSn3AQAA"
            },
            "Metadata": {"aws:cdk:path": "CRTestPy/CDKMetadata/Default"},
            "Condition": "CDKMetadataAvailable"
        }
    },
    "Conditions": {
        "CDKMetadataAvailable": {
            "Fn::Or": [
                {
                    "Fn::Or": [
                        {"Fn::Equals": [{"Ref": "AWS::Region"}, "af-south-1"]},
                        {"Fn::Equals": [{"Ref": "AWS::Region"}, "ap-east-1"]},
                        {"Fn::Equals": [{"Ref": "AWS::Region"}, "ap-northeast-1"]},
                        {"Fn::Equals": [{"Ref": "AWS::Region"}, "ap-northeast-2"]},
                        {"Fn::Equals": [{"Ref": "AWS::Region"}, "ap-south-1"]},
                        {"Fn::Equals": [{"Ref": "AWS::Region"}, "ap-southeast-1"]},
                        {"Fn::Equals": [{"Ref": "AWS::Region"}, "ap-southeast-2"]},
                        {"Fn::Equals": [{"Ref": "AWS::Region"}, "ca-central-1"]},
                        {"Fn::Equals": [{"Ref": "AWS::Region"}, "cn-north-1"]},
                        {"Fn::Equals": [{"Ref": "AWS::Region"}, "cn-northwest-1"]}
                    ]
                },
                {
                    "Fn::Or": [
                        {"Fn::Equals": [{"Ref": "AWS::Region"}, "eu-central-1"]},
                        {"Fn::Equals": [{"Ref": "AWS::Region"}, "eu-north-1"]},
                        {"Fn::Equals": [{"Ref": "AWS::Region"}, "eu-south-1"]},
                        {"Fn::Equals": [{"Ref": "AWS::Region"}, "eu-west-1"]},
                        {"Fn::Equals": [{"Ref": "AWS::Region"}, "eu-west-2"]},
                        {"Fn::Equals": [{"Ref": "AWS::Region"}, "eu-west-3"]},
                        {"Fn::Equals": [{"Ref": "AWS::Region"}, "me-south-1"]},
                        {"Fn::Equals": [{"Ref": "AWS::Region"}, "sa-east-1"]},
                        {"Fn::Equals": [{"Ref": "AWS::Region"}, "us-east-1"]},
                        {"Fn::Equals": [{"Ref": "AWS::Region"}, "us-east-2"]}
                    ]
                },
                {"Fn::Or": [{"Fn::Equals": [{"Ref": "AWS::Region"}, "us-west-1"]}, {"Fn::Equals": [{"Ref": "AWS::Region"}, "us-west-2"]}]}
            ]
        }
    },
    "Parameters": {
        "BootstrapVersion": {
            "Type": "AWS::SSM::Parameter::Value<String>",
            "Default": "/cdk-bootstrap/hnb659fds/version",
            "Description": "Version of the CDK Bootstrap resources in this environment, automatically retrieved from SSM Parameter Store. [cdk:skip]"
        }
    },
    "Rules": {
        "CheckBootstrapVersion": {
            "Assertions": [
                {
                    "Assert": {"Fn::Not": [{"Fn::Contains": [["1", "2", "3", "4", "5"], {"Ref": "BootstrapVersion"}]}]},
                    "AssertDescription": "CDK bootstrap stack version 6 required. Please run 'cdk bootstrap' with a recent version of the CDK CLI."
                }
            ]
        }
    }
}